Hjemmeoppgaver
…
Hint 2: Variabelen “MidProd_81_10” viser gjennomsnittlig kraftproduksjon mellom 1981 og 2010 i GWh (= 1 000 000 kWh). Dette er et godt mål på årlig kraftproduksjon.

Obs: Det er god praksis å begrense antall API-kall. Ikke spam NVE. Dette er særlig viktig for testene av funksjonen.

Beregn inntekter

Legg til data i pakken.

Lagre disse verdiene som et datasett i pakken:

tibble::tibble(date = seq(lubridate::as_date("2019-12-31"), lubridate::as_date("2040-12-31"), by = "year"), 
               power_price = c(0.30, 0.32, 0.35, 0.37, 0.38, 0.40, 0.41, 0.43, 0.43, 0.43, 0.43, 0.43, 0.43, 0.43, 0.43, 0.43, 0.43, 0.43, 0.43, 0.43, 0.43, 0.43))

## # A tibble: 22 x 2
##    date       power_price
##    <date>           <dbl>
##  1 2019-12-31        0.3 
##  2 2020-12-31        0.32
##  3 2021-12-31        0.35
##  4 2022-12-31        0.37
##  5 2023-12-31        0.38
##  6 2024-12-31        0.4 
##  7 2025-12-31        0.41
##  8 2026-12-31        0.43
##  9 2027-12-31        0.43
## 10 2028-12-31        0.43
## # ... with 12 more rows
…
